<svg width="46" height="43" viewBox="0 0 46 43" fill="none" xmlns="http://www.w3.org/2000/svg">
<path d="M41.8525 10.2227H35.635L32.0457 6.22266H20.2776V10.2227H30.3197L33.909 14.2227H41.8525V38.2227H10.4708V20.2227H6.54812V38.2227C6.54812 40.4227 8.31334 42.2227 10.4708 42.2227H41.8525C44.01 42.2227 45.7752 40.4227 45.7752 38.2227V14.2227C45.7752 12.0227 44.01 10.2227 41.8525 10.2227ZM16.3549 26.2227C16.3549 31.7427 20.7483 36.2227 26.1616 36.2227C31.575 36.2227 35.9684 31.7427 35.9684 26.2227C35.9684 20.7027 31.575 16.2227 26.1616 16.2227C20.7483 16.2227 16.3549 20.7027 16.3549 26.2227ZM26.1616 20.2227C29.3979 20.2227 32.0457 22.9227 32.0457 26.2227C32.0457 29.5227 29.3979 32.2227 26.1616 32.2227C22.9254 32.2227 20.2776 29.5227 20.2776 26.2227C20.2776 22.9227 22.9254 20.2227 26.1616 20.2227ZM10.4708 10.2227H16.3549V6.22266H10.4708V0.222656H6.54812V6.22266H0.664062V10.2227H6.54812V16.2227H10.4708V10.2227Z" fill="#323232"/>
</svg>
