<svg width="32" height="32" viewBox="0 0 32 32" fill="none" xmlns="http://www.w3.org/2000/svg">
<rect y="22.8574" width="8.82759" height="9.1427" rx="2" fill="#C3C3C4"/>
<rect x="11.5862" y="22.8574" width="8.82759" height="9.1427" rx="2" fill="#C3C3C4"/>
<rect x="23.1724" y="22.8574" width="8.82759" height="9.1427" rx="2" fill="#C3C3C4"/>
<rect y="11.4277" width="8.82759" height="9.1427" rx="2" fill="#C3C3C4"/>
<rect x="11.5862" y="11.4277" width="8.82759" height="9.1427" rx="2" fill="#C3C3C4"/>
<rect x="23.1724" y="11.4277" width="8.82759" height="9.1427" rx="2" fill="#C3C3C4"/>
<rect width="8.82759" height="9.1427" rx="2" fill="#C3C3C4"/>
<rect x="11.5862" width="8.82759" height="9.1427" rx="2" fill="#C3C3C4"/>
<rect x="23.1724" width="8.82759" height="9.1427" rx="2" fill="#C3C3C4"/>
</svg>
