<svg width="64" height="64" viewBox="0 0 64 64" fill="none" xmlns="http://www.w3.org/2000/svg">
<rect x="0.5" y="0.5" width="63" height="63" rx="31.5" fill="white" stroke="#323232"/>
<path d="M40.5337 14.9333H23.467C21.5846 14.9333 20.0537 16.4642 20.0537 18.3467V45.6533C20.0537 47.5358 21.5846 49.0667 23.467 49.0667H40.5337C42.4162 49.0667 43.947 47.5358 43.947 45.6533V18.3467C43.947 16.4642 42.4162 14.9333 40.5337 14.9333ZM23.467 43.945V18.3467H40.5337L40.5371 43.945H23.467Z" fill="#323232"/>
</svg>
