<svg width="50" height="50" viewBox="0 0 50 50" fill="none" xmlns="http://www.w3.org/2000/svg">
<rect width="50" height="50" rx="25" fill="#F6F6F6"/>
<path d="M39.1055 15.1499C38.745 14.7235 38.2937 14.3806 37.7837 14.1455C37.2737 13.9103 36.7174 13.7888 36.1543 13.7895H15.4359L15.3821 13.3461C15.2719 12.4245 14.8226 11.5748 14.1192 10.9581C13.4158 10.3413 12.5073 10.0004 11.5659 10H11.2814C10.9416 10 10.6156 10.1331 10.3753 10.37C10.135 10.6069 10 10.9281 10 11.2632C10 11.5982 10.135 11.9195 10.3753 12.1563C10.6156 12.3932 10.9416 12.5263 11.2814 12.5263H11.5659C11.8798 12.5264 12.1827 12.6399 12.4173 12.8455C12.6518 13.0511 12.8017 13.3344 12.8384 13.6417L14.6017 28.4206C14.7847 29.9576 15.5339 31.3749 16.707 32.4034C17.88 33.4319 19.3954 34 20.9653 34H34.3475C34.6873 34 35.0133 33.8669 35.2536 33.63C35.4939 33.3931 35.6289 33.0719 35.6289 32.7368C35.6289 32.4018 35.4939 32.0805 35.2536 31.8437C35.0133 31.6068 34.6873 31.4737 34.3475 31.4737H20.9653C20.1722 31.4715 19.3991 31.2275 18.7522 30.7752C18.1052 30.3229 17.616 29.6845 17.3517 28.9474H32.6265C34.1287 28.9475 35.5832 28.4272 36.7358 27.4776C37.8885 26.528 38.666 25.2093 38.9325 23.752L39.9384 18.2522C40.0388 17.7065 40.0162 17.1458 39.8723 16.6096C39.7284 16.0735 39.4666 15.5752 39.1055 15.1499V15.1499ZM37.4229 17.8038L36.4157 23.3036C36.2557 24.1789 35.7884 24.9709 35.0956 25.5409C34.4029 26.1108 33.5288 26.4224 32.6265 26.4211H16.9442L15.7383 16.3158H36.1543C36.3425 16.3147 36.5287 16.3545 36.6996 16.4323C36.8705 16.5102 37.0218 16.6242 37.143 16.7662C37.2641 16.9083 37.3519 17.0749 37.4003 17.2542C37.4487 17.4336 37.4564 17.6212 37.4229 17.8038V17.8038Z" fill="#323232"/>
<path d="M18.5 40C19.8807 40 21 38.8807 21 37.5C21 36.1193 19.8807 35 18.5 35C17.1193 35 16 36.1193 16 37.5C16 38.8807 17.1193 40 18.5 40Z" fill="#323232"/>
<path d="M32 40C33.6569 40 35 38.8807 35 37.5C35 36.1193 33.6569 35 32 35C30.3431 35 29 36.1193 29 37.5C29 38.8807 30.3431 40 32 40Z" fill="#323232"/>
</svg>
